{
  "include": ["src", "tests"],
  "reportGeneralTypeIssues": false,
  "reportImportCycles": true,
  "reportMissingParameterType": false,
  "reportMissingTypeArgument": false,
  "reportMissingTypeStubs": false,
  "reportPrivateImportUsage": true,
  "reportUnknownArgumentType": false,
  "reportUnknownLambdaType": false,
  "reportUnknownMemberType": false,
  "reportUnknownParameterType": false,
  "reportUnknownVariableType": false,
  "reportUnnecessaryContains": true,
  "reportUnnecessaryIsInstance": false,
  "reportUntypedBaseClass": false,
  "reportUntypedFunctionDecorator": false,
  "reportUnusedClass": true,
  "reportUnusedFunction": true,
  "reportUnusedImport": true,
  "reportUnusedVariable": true,
  "typeCheckingMode": "strict"
}
